Linear Regression in R: The Relationship Between Deprivation & Life Expectancy
…
deprivation_df <-
  deprivation_df %>%
  rowwise() %>%
  mutate(
    imd_transformed = (imd_score - imd_centre)/imd_scale,
    physiological_transformed = 
      (physiological_risk_factors - physiological_centre)/physiological_scale,
    behavioural_transformed = 
      (behavioural_risk_factors - behavioural_centre)/behavioural_scale
  )

deprivation_df

# A tibble: 292 × 11
# Rowwise: 
   area_…¹  year life_…² morta…³ imd_s…⁴ imd_d…⁵ physi…⁶ behav…⁷ imd_t…⁸ physi…⁹
   <chr>   <dbl>   <dbl>   <dbl>   <dbl>   <dbl>   <dbl>   <dbl>   <dbl>   <dbl>
 1 E06000…  2015    78.7    254.    35.0       1    89.9    84.9   1.47   -1.04 
 2 E06000…  2016    79.1    238.    35.0       1    88.8    84.4   1.47   -1.15 
 3 E06000…  2015    77.8    278.    40.5       1    96.4    80.3   2.15   -0.370
 4 E06000…  2016    77.6    284.    40.5       1    95.8    82.6   2.15   -0.432
 5 E06000…  2015    79.6    228.    29.8       3    87.2    96.3   0.823  -1.32 
 6 E06000…  2016    79.9    224.    29.8       3    86.3    93.7   0.823  -1.41 
 7 E06000…  2015    79.8    210.    25.8       4    96.6    88.9   0.325  -0.350
 8 E06000…  2016    79.8    212.    25.8       4    95.9    91.6   0.325  -0.422
 9 E06000…  2015    80.4    202.    25.7       4    86.5    96.7   0.309  -1.39 
10 E06000…  2016    80.6    198.    25.7       4    85      94.8   0.309  -1.54 
# … with 282 more rows, 1 more variable: behavioural_transformed <dbl>, and
#   abbreviated variable names ¹​area_code, ²​life_expectancy, ³​mortality,
#   ⁴​imd_score, ⁵​imd_decile, ⁶​physiological_risk_factors,
#   ⁷​behavioural_risk_factors, ⁸​imd_transformed, ⁹​physiological_transformed
…
