…
model_rec %>%
  prep() %>%
  bake(new_data = NULL)
```

    # A tibble: 642 × 19
           age resting…¹ chole…²  max_hr heart…³ heart…⁴ sex_F sex_M sex_new fasti…⁵
         <dbl>     <dbl>   <dbl>   <dbl>   <dbl> <fct>   <dbl> <dbl>   <dbl>   <dbl>
     1 -1.78      -0.102  0.740  -1.53    -0.804 0           0     1       0       1
     2  0.0574     0.969 -0.0684 -0.579   -0.804 0           0     1       0       1
     3 -1.56      -0.638  1.25    1.32    -0.804 0           0     1       0       1
     4 -0.913     -0.102  0.317   1.32    -0.804 0           1     0       0       1
     5 -0.590     -0.638  0.749  -0.658   -0.804 0           1     0       0       1
     6 -1.78      -0.102  0.0785  0.213   -0.804 0           1     0       0       1
     7 -1.56      -0.638  0.0143  0.332   -0.804 0           0     1       0       1
     8 -1.24      -0.906  0.0785  0.0155  -0.804 0           1     0       0       1
     9  0.0574    -0.638  0.648   0.530    0.578 0           1     0       0       1
    10 -1.13      -0.638 -0.0133  1.12    -0.804 0           1     0       0       1
    # … with 632 more rows, 9 more variables: fasting_bs_X1 <dbl>,
    #   fasting_bs_new <dbl>, resting_ecg_LVH <dbl>, resting_ecg_Normal <dbl>,
    #   resting_ecg_ST <dbl>, resting_ecg_new <dbl>, angina_N <dbl>,
    #   angina_Y <dbl>, angina_new <dbl>, and abbreviated variable names
    #   ¹​resting_bp, ²​cholesterol, ³​heart_peak_reading, ⁴​heart_disease,
    #   ⁵​fasting_bs_X0
…
