R Data Science Guides - 5 Exploratory Data Analysis
…
# angina
df |>
  count(angina)

# A tibble: 2 × 2
  angina     n
  <fct>  <int>
1 N        547
2 Y        371

# cholesterol
df |>
  count(cholesterol)

# A tibble: 222 × 2
   cholesterol     n
         <dbl> <int>
 1           0   172
 2          85     1
 3         100     2
 4         110     1
 5         113     1
 6         117     1
 7         123     1
 8         126     2
 9         129     1
10         131     1
# ℹ 212 more rows
…
