R Data Science Guides - 8 End-to-End Machine Learning Workflow
…
# specify scaled preprocessing recipe
scaled_recipe <- recipe(heart_disease ~ ., data = train_df) |>
  # normalise data so that it has mean zero and sd one
  step_normalize(all_numeric_predictors()) |> 
  # one-hot encode categorical variables
  step_dummy(all_nominal_predictors(), one_hot = TRUE) |>
  # remove features that have strong correlation with another feature
  step_corr(all_numeric_predictors(), threshold = .5)

# inspect basic preprocessing recipe
basic_recipe |>
  prep() |>
  bake(new_data = NULL)

# A tibble: 642 × 11
     age resting_bp cholesterol max_hr heart_peak_reading heart_disease sex_M fasting_bs_X1 resting_ecg_LVH
   <dbl>      <dbl>       <dbl>  <dbl>              <dbl> <fct>         <dbl>         <dbl>           <dbl>
 1    37        130         283     98                0   0                 1             0               0
 2    39        120         339    170                0   0                 1             0               0
 3    45        130         237    170                0   0                 0             0               0
 4    48        120         284    120                0   0                 0             0               0
 5    39        120         204    145                0   0                 1             0               0
 6    42        115         211    137                0   0                 0             0               0
 7    54        120         273    150                1.5 0                 0             0               0
 8    43        100         223    142                0   0                 0             0               0
 9    44        120         184    142                1   0                 1             0               0
10    40        130         215    138                0   0                 1             0               0
# ℹ 632 more rows
# ℹ 2 more variables: resting_ecg_ST <dbl>, angina_Y <dbl>

# inspect scaled preprocessing recipe
scaled_recipe |>
  prep() |>
  bake(new_data = NULL)

# A tibble: 642 × 11
       age resting_bp cholesterol  max_hr heart_peak_reading heart_disease sex_M fasting_bs_X1 resting_ecg_LVH
     <dbl>      <dbl>       <dbl>   <dbl>              <dbl> <fct>         <dbl>         <dbl>           <dbl>
 1 -1.74       -0.133      0.753  -1.52               -0.833 0                 1             0               0
 2 -1.53       -0.666      1.25    1.31               -0.833 0                 1             0               0
 3 -0.900      -0.133      0.341   1.31               -0.833 0                 0             0               0
 4 -0.585      -0.666      0.762  -0.656              -0.833 0                 0             0               0
 5 -1.53       -0.666      0.0457  0.328              -0.833 0                 1             0               0
 6 -1.21       -0.933      0.108   0.0134             -0.833 0                 0             0               0
 7  0.0436     -0.666      0.663   0.525               0.604 0                 0             0               0
 8 -1.11       -1.73       0.216   0.210              -0.833 0                 0             0               0
 9 -1.00       -0.666     -0.133   0.210               0.125 0                 1             0               0
10 -1.42       -0.133      0.144   0.0528             -0.833 0                 1             0               0
# ℹ 632 more rows
# ℹ 2 more variables: resting_ecg_ST <dbl>, angina_Y <dbl>
…
