R Data Science Guides - 4 Wrangling Data
…
The data pulled from the Fingertips API has a number of idiosyncracies that need addressing when wrangling the data. For example, the timeperiod_sortable column refers to the year that the data relates to, and it contains four superfluous zeros at the end of each year (i.e, 20230000). We can use the dplyr::mutate() function to create a year column which strips out the zeros from the timeperiod_sortable column (using the stringr::str_remove_all() function).

# filter for the indicators of interest and wrangle data into tidy structure
phof_raw |>
  dplyr::filter(indicator_id %in% c(90366, 20101, 11601) & area_code == "E92000001") |>
  dplyr::group_by(indicator_name, area_code, timeperiod_sortable) |>
  dplyr::summarise(value = mean(value)) |>
  dplyr::mutate(year = stringr::str_remove_all(timeperiod_sortable, "0000")) |>
  dplyr::select(indicator_name, area_code, year, value)

# A tibble: 39 × 4
# Groups:   indicator_name, area_code [3]
   indicator_name                  area_code year  value
   <chr>                           <chr>     <chr> <dbl>
 1 A01b - Life expectancy at birth E92000001 2001   78.4
 2 A01b - Life expectancy at birth E92000001 2002   78.7
 3 A01b - Life expectancy at birth E92000001 2003   79.0
 4 A01b - Life expectancy at birth E92000001 2004   79.4
 5 A01b - Life expectancy at birth E92000001 2005   79.6
 6 A01b - Life expectancy at birth E92000001 2006   79.8
 7 A01b - Life expectancy at birth E92000001 2007   80.1
 8 A01b - Life expectancy at birth E92000001 2008   80.4
 9 A01b - Life expectancy at birth E92000001 2009   80.7
10 A01b - Life expectancy at birth E92000001 2010   81.0
# ℹ 29 more rows
…
phof_raw |>
  dplyr::filter(indicator_id %in% c(90366, 20101, 11601)) |>
  dplyr::select(indicator_id, indicator_name, area_code, timeperiod_sortable, sex, value) |>
  tidyr::pivot_wider(
    names_from = indicator_name,
    values_from = value
  ) |>
  dplyr::rename(
      life_expectancy = `A01b - Life expectancy at birth`,
      low_birth_weight = `C04 - Low birth weight of term babies`,
      outdoor_space = `B16 - Utilisation of outdoor space for exercise/health reasons`
  )

# A tibble: 9,159 × 7
   indicator_id area_code timeperiod_sortable sex    life_expectancy
          <int> <chr>                   <int> <chr>            <dbl>
 1        90366 E92000001            20010000 Male              76.2
 2        90366 E92000001            20010000 Female            80.7
 3        90366 E12000001            20010000 Male              74.7
 4        90366 E12000002            20010000 Male              74.8
 5        90366 E12000003            20010000 Male              75.5
 6        90366 E12000004            20010000 Male              76.2
 7        90366 E12000005            20010000 Male              75.6
 8        90366 E12000006            20010000 Male              77.3
 9        90366 E12000007            20010000 Male              76.0
10        90366 E12000008            20010000 Male              77.4
# ℹ 9,149 more rows
# ℹ 2 more variables: outdoor_space <dbl>, low_birth_weight <dbl>
…
